…
``` r
firefly_data <- read_csv("https://whitlockschluter.zoology.ubc.ca/wp-content/data/chapter02/chap02q19FireflySpermatophoreMass.csv")
```

    ## 
    ## -- Column specification --------------------------------------------------------
    ## cols(
    ##   spermatophoreMass = col_double()
    ## )

``` r
firefly_data                  
```

    ## # A tibble: 35 x 1
    ##    spermatophoreMass
    ##                <dbl>
    ##  1             0.047
    ##  2             0.037
    ##  3             0.041
    ##  4             0.045
    ##  5             0.039
    ##  6             0.064
    ##  7             0.064
    ##  8             0.065
    ##  9             0.079
    ## 10             0.07 
    ## # ... with 25 more rows
…
# load packages -----------------------------------------------------------

library(tidyverse)

library(auk)                          # load the auk package
birds <- ebird_taxonomy %>%           # start with the ebird_taxonomy data
  as_tibble() %>%                     # tibbles print better in the console
  filter(category == "species")       # remove non-species taxa

birds
```

    ## # A tibble: 10,721 x 9
    ##    species_code scientific_name common_name order family family_common category
    ##    <chr>        <chr>           <chr>       <chr> <chr>  <chr>         <chr>   
    ##  1 ostric2      Struthio camel~ Common Ost~ Stru~ Strut~ Ostriches     species 
    ##  2 ostric3      Struthio molyb~ Somali Ost~ Stru~ Strut~ Ostriches     species 
    ##  3 grerhe1      Rhea americana  Greater Rh~ Rhei~ Rheid~ Rheas         species 
    ##  4 lesrhe2      Rhea pennata    Lesser Rhea Rhei~ Rheid~ Rheas         species 
    ##  5 tabtin1      Nothocercus ju~ Tawny-brea~ Tina~ Tinam~ Tinamous      species 
    ##  6 higtin1      Nothocercus bo~ Highland T~ Tina~ Tinam~ Tinamous      species 
    ##  7 hootin1      Nothocercus ni~ Hooded Tin~ Tina~ Tinam~ Tinamous      species 
    ##  8 grytin1      Tinamus tao     Gray Tinam~ Tina~ Tinam~ Tinamous      species 
    ##  9 soltin1      Tinamus solita~ Solitary T~ Tina~ Tinam~ Tinamous      species 
    ## 10 blatin1      Tinamus osgoodi Black Tina~ Tina~ Tinam~ Tinamous      species 
    ## # ... with 10,711 more rows, and 2 more variables: taxon_order <dbl>,
    ## #   report_as <chr>

``` r
distinct(birds, order)
```

    ## # A tibble: 41 x 1
    ##    order              
    ##    <chr>              
    ##  1 Struthioniformes   
    ##  2 Rheiformes         
    ##  3 Tinamiformes       
    ##  4 Casuariiformes     
    ##  5 Apterygiformes     
    ##  6 Anseriformes       
    ##  7 Galliformes        
    ##  8 Phoenicopteriformes
    ##  9 Podicipediformes   
    ## 10 Columbiformes      
    ## # ... with 31 more rows

``` r
count(birds, family_common)
```

    ## # A tibble: 249 x 2
    ##    family_common                     n
    ##    <chr>                         <int>
    ##  1 Accentors                        13
    ##  2 African and Green Broadbills      6
    ##  3 African Barbets                  41
    ##  4 African Warblers                 21
    ##  5 Albatrosses                      15
    ##  6 Anhingas                          4
    ##  7 Antpittas                        55
    ##  8 Antthrushes                      11
    ##  9 Asian and Grauer's Broadbills     9
    ## 10 Asian Barbets                    34
    ## # ... with 239 more rows
…
